<gx:FlyTo>
        <gx:duration>##DURATION##</gx:duration>
        <gx:flyToMode>##FLYTOMODE##</gx:flyToMode>
        <Camera>
          <longitude>##LONGITUDE##</longitude>
          <latitude>##LATITUDE##</latitude>
          <altitude>##ALTUTUDE##</altitude>
          <heading>##HEADING##</heading>
          <tilt>##TILT##</tilt>
          <range>##RANGE##</range>
          <altitudeMode>##ALTITUDEMODE##</altitudeMode>
        </Camera>
</gx:FlyTo>