{
"TAG": "xyz",
"KML": [
  {
    "type": "folder",
    "id"  : 1,
    "tags":[
      {
        "type": "placemark",
        "id": 2,
        "loc":[
          {
          "lat": 900000,
          "lon": 10,
          "at": 10
          }
      }
    ]
  },
  {
    "type": "folder",
    "id"  : 3,
    "tags":[
      {
        "type": "placemark",
        "id": 4,
        "loc":[
          {
          "lat": 900000,
          "lon": 20,
          "at": 20
          }
      }
    ]
  },
  {
    "type": "folder",
    "id"  : 5,
    "tags":[
      {
        "type": "placemark",
        "id": 6,
        "loc":[
          {
          "lat": 30,
          "lon": 30,
          "at": 30
          }
      }
    ]
  }
]
}
