{
"TAG": "xyz",
"KML": [
  {
    "type": "folder",
    "id"  : 1,
    "tags":[
	{
        "type": "placemark",
        "id": 2,
        "loc":[
          {
          "lat": 10,
          "lon": ,
          "at": 10
          }
      }
    ]
  }
]
}
